^C:\USERS\FLORI\SOURCE\REPOS\PROJETINFO\PROJETINFO\DEBUG\MAIN.OBJ
C:\USERS\FLORI\SOURCE\REPOS\PROJETINFO\DEBUG\PROJETINFO.EXE
C:\USERS\FLORI\SOURCE\REPOS\PROJETINFO\DEBUG\PROJETINFO.ILK
C:\USERS\FLORI\SOURCE\REPOS\PROJETINFO\DEBUG\PROJETINFO.PDB
^C:\USERS\FLORI\DESKTOP\PROJETINFO\MATLAB\PROJETINFO\DEBUG\MAIN.OBJ
C:\USERS\FLORI\DESKTOP\PROJETINFO\MATLAB\DEBUG\PROJETINFO.EXE
C:\USERS\FLORI\DESKTOP\PROJETINFO\MATLAB\DEBUG\PROJETINFO.ILK
C:\USERS\FLORI\DESKTOP\PROJETINFO\MATLAB\DEBUG\PROJETINFO.PDB
